Machine Learning review with an intro to the tidymodels package
…
Now we are finally ready to fit the model! After all that work, this part seems easy. We first use the fit() function to fit the model, telling it which data set we want to fit the model to. Then we use some other functions to display the results nicely.

house_lm_fit <- 
  # Tell it the workflow
  house_lm_wf %>% 
  # Fit the model to the training data
  fit(house_training)

# Display the results nicely
house_lm_fit %>% 
  pull_workflow_fit() %>% 
  tidy() %>% 
  mutate(across(where(is.numeric), ~round(.x,3))) 

# A tibble: 31 x 5
   term        estimate std.error statistic p.value
   <chr>          <dbl>     <dbl>     <dbl>   <dbl>
 1 (Intercept)    5.67      0.001   5345.         0
 2 bedrooms      -0.015     0.001    -10.8        0
 3 bathrooms      0.026     0.002     13.3        0
 4 sqft_living    0.053     0.005     11.3        0
 5 sqft_lot      -0.014     0.001    -10.7        0
 6 floors         0.013     0.002      7.64       0
 7 waterfront     0.017     0.001     15.1        0
 8 view          -0.017     0.001    -14.8        0
 9 sqft_above     0.026     0.005      5.66       0
10 basement      -0.02      0.002     -8.90       0
# … with 21 more rows
…
# performance metrics from testing data
collect_metrics(house_lm_test)

# A tibble: 2 x 4
  .metric .estimator .estimate .config             
  <chr>   <chr>          <dbl> <chr>               
1 rmse    standard       0.136 Preprocessor1_Model1
2 rsq     standard       0.654 Preprocessor1_Model1

# predictions from testing data
collect_predictions(house_lm_test) 

# A tibble: 5,404 x 5
   id               .pred  .row log_price .config             
   <chr>            <dbl> <int>     <dbl> <chr>               
 1 train/test split  5.49     1      5.35 Preprocessor1_Model1
 2 train/test split  5.64     4      5.78 Preprocessor1_Model1
 3 train/test split  6.08     6      6.09 Preprocessor1_Model1
 4 train/test split  5.59     9      5.36 Preprocessor1_Model1
 5 train/test split  5.49    14      5.60 Preprocessor1_Model1
 6 train/test split  5.74    15      5.72 Preprocessor1_Model1
 7 train/test split  5.79    28      5.82 Preprocessor1_Model1
 8 train/test split  5.73    33      5.84 Preprocessor1_Model1
 9 train/test split  5.56    54      5.77 Preprocessor1_Model1
10 train/test split  5.50    72      5.51 Preprocessor1_Model1
# … with 5,394 more rows
…
Then look at the cross-validated results in a table.

# The rmse for each fold:
house_lasso_tune %>% 
  select(id, .metrics) %>% 
  unnest(.metrics) %>% 
  filter(.metric == "rmse")

# A tibble: 100 x 6
   id     penalty .metric .estimator .estimate .config              
   <chr>    <dbl> <chr>   <chr>          <dbl> <chr>                
 1 Fold1 1   e-10 rmse    standard       0.136 Preprocessor1_Model01
 2 Fold1 3.36e-10 rmse    standard       0.136 Preprocessor1_Model02
 3 Fold1 1.13e- 9 rmse    standard       0.136 Preprocessor1_Model03
 4 Fold1 3.79e- 9 rmse    standard       0.136 Preprocessor1_Model04
 5 Fold1 1.27e- 8 rmse    standard       0.136 Preprocessor1_Model05
 6 Fold1 4.28e- 8 rmse    standard       0.136 Preprocessor1_Model06
 7 Fold1 1.44e- 7 rmse    standard       0.136 Preprocessor1_Model07
 8 Fold1 4.83e- 7 rmse    standard       0.136 Preprocessor1_Model08
 9 Fold1 1.62e- 6 rmse    standard       0.136 Preprocessor1_Model09
10 Fold1 5.46e- 6 rmse    standard       0.136 Preprocessor1_Model10
# … with 90 more rows
…
Computational engine: glmnet 

Now we could fit this to the training data and look at the resulting model. We can see a few of the terms have coefficients of 0 (although not as many as I would have expected).

house_lasso_final_mod <- house_lasso_final_wf %>% 
  fit(data = house_training)

house_lasso_final_mod %>% 
  pull_workflow_fit() %>% 
  tidy() 

# A tibble: 31 x 3
   term        estimate  penalty
   <chr>          <dbl>    <dbl>
 1 (Intercept)   5.67   0.000695
 2 bedrooms     -0.0135 0.000695
 3 bathrooms     0.0249 0.000695
 4 sqft_living   0.0587 0.000695
 5 sqft_lot     -0.0138 0.000695
 6 floors        0.0127 0.000695
 7 waterfront    0.0161 0.000695
 8 view         -0.0173 0.000695
 9 sqft_above    0.0213 0.000695
10 basement     -0.0180 0.000695
# … with 21 more rows
…
